…
``` r
wine <- wine %>% 
  select(country, designation:winery) # don't need 1st col or description

wine %>% 
        filter(!is.na(price)) %>%
        filter(!is.na(country)) %>% # can you filter two vars at the same time? google
        group_by(country) %>% 
        summarise(count = n(),
                  avgPoints = round(mean(points)),
                  avgPrice = round(mean(price), 2)) %>%
        arrange(desc(avgPoints), avgPrice)
```

    ## # A tibble: 42 x 4
    ##    country    count avgPoints avgPrice
    ##    <chr>      <int>     <dbl>    <dbl>
    ##  1 England       69        92     51.7
    ##  2 India          9        90     13.3
    ##  3 Austria     2799        90     30.8
    ##  4 Germany     2120        90     42.3
    ##  5 China          1        89     18  
    ##  6 Morocco       28        89     19.5
    ##  7 Luxembourg     6        89     23.3
    ##  8 Australia   2294        89     35.4
    ##  9 Canada       254        89     35.7
    ## 10 US         54265        89     36.6
    ## # … with 32 more rows
…
